[
  "hellhole/#139#.LEV",
  "hellhole/1FORT.LEV",
  "hellhole/22.lev",
  "hellhole/4bases.lev",
  "hellhole/AHHHHHH.LEV",
  "hellhole/ARMORED BUNKER.LEV",
  "hellhole/Amasing.lev",
  "hellhole/AntStack.lev",
  "hellhole/Ants.lev",
  "hellhole/Area 51.lev",
  "hellhole/Arena_1.lev",
  "hellhole/ArjenRoc.lev",
  "hellhole/Artic.lev",
  "hellhole/Artillary.lev",
  "hellhole/BATTLE F.LEV",
  "hellhole/BGRock2.lev",
  "hellhole/BLUE 2.LEV",
  "hellhole/BOAT.LEV",
  "hellhole/BOOMERAN.LEV",
  "hellhole/BOOM_1.lev",
  "hellhole/Battleground.lev",
  "hellhole/Blink.lev",
  "hellhole/BlowAway.lev",
  "hellhole/Bone Yard.lev",
  "hellhole/Bot.lev",
  "hellhole/Bridge of Quai.lev",
  "hellhole/CHAOS II.LEV",
  "hellhole/CITY_2.LEV",
  "hellhole/CLONESWR.LEV",
  "hellhole/COMMAND.LEV",
  "hellhole/CRASH.LEV",
  "hellhole/CTFArena.lev",
  "hellhole/Cave_1.lev",
  "hellhole/Cavern.lev",
  "hellhole/Chicken Coop.lev",
  "hellhole/Chip N Dale 1.lev",
  "hellhole/Circulate.lev",
  "hellhole/City_1.lev",
  "hellhole/Clime.lev",
  "hellhole/CommSat1.lev",
  "hellhole/Corey's1st.lev",
  "hellhole/Corey's2nd.lev",
  "hellhole/Court.lev",
  "hellhole/Crash Zone.lev",
  "hellhole/Crater.lev",
  "hellhole/Cross.lev",
  "hellhole/DM - Morpheus.lev",
  "hellhole/DYNO.LEV",
  "hellhole/Desert.lev",
  "hellhole/Dino.lev",
  "hellhole/Disney.lev",
  "hellhole/Egypt_1.lev",
  "hellhole/Egypt_2.lev",
  "hellhole/Elias4.lev",
  "hellhole/FUCKEMUP.LEV",
  "hellhole/FUN_1.LEV",
  "hellhole/Farm.lev",
  "hellhole/Field.lev",
  "hellhole/Fire.lev",
  "hellhole/Forest2.lev",
  "hellhole/Forest_1.lev",
  "hellhole/Fortress.lev",
  "hellhole/GOZONTAI.LEV",
  "hellhole/Galactic Death!.lev",
  "hellhole/Garden.lev",
  "hellhole/Garden_1.lev",
  "hellhole/Ghousthouse.lev",
  "hellhole/Giza.lev",
  "hellhole/Goddy.lev",
  "hellhole/Goku Worm.lev",
  "hellhole/Gollum.lev",
  "hellhole/H2O.lev",
  "hellhole/Haloween.lev",
  "hellhole/Hang gown towers.lev",
  "hellhole/Head.lev",
  "hellhole/Head_1.lev",
  "hellhole/Hitler.lev",
  "hellhole/Hus3.lev",
  "hellhole/ICE Rase.lev",
  "hellhole/Island War.lev",
  "hellhole/JUSSI133.LEV",
  "hellhole/KNAPPPPP.LEV",
  "hellhole/KNASIGGG.LEV",
  "hellhole/KOKKKKO.LEV",
  "hellhole/KillEm.lev",
  "hellhole/LAIR.LEV",
  "hellhole/LATMc.lev",
  "hellhole/LIAM.LEV",
  "hellhole/Labrinth.lev",
  "hellhole/Land-Ho.lev",
  "hellhole/Loadoff.lev",
  "hellhole/MArio Factory.lev",
  "hellhole/MGM1.LEV",
  "hellhole/MGM2.LEV",
  "hellhole/MGM3.LEV",
  "hellhole/MGM4.LEV",
  "hellhole/MGM5.LEV",
  "hellhole/MGM6.LEV",
  "hellhole/MIFFFFO.LEV",
  "hellhole/MUSEUM.lev",
  "hellhole/MYKKO.LEV",
  "hellhole/Metal.lev",
  "hellhole/Mission1.lev",
  "hellhole/Mission2.lev",
  "hellhole/Mission3.lev",
  "hellhole/Mission5.lev",
  "hellhole/Molehole.lev",
  "hellhole/Mujbojin.lev",
  "hellhole/N2O.lev",
  "hellhole/NR1.LEV",
  "hellhole/Nuketest.lev",
  "hellhole/OMEGA G.LEV",
  "hellhole/Office.lev",
  "hellhole/OneWay.lev",
  "hellhole/PATTERN.LEV",
  "hellhole/PILLBOXES.LEV",
  "hellhole/PKiNpow.lev",
  "hellhole/Paris burning.lev",
  "hellhole/Piss.lev",
  "hellhole/Platforms.lev",
  "hellhole/Puzzle.LEV",
  "hellhole/Pyromide.lev",
  "hellhole/RED2.LEV",
  "hellhole/REDLAND.LEV",
  "hellhole/RED_1.LEV",
  "hellhole/RV_city.lev",
  "hellhole/Ring.lev",
  "hellhole/RockTest.lev",
  "hellhole/Roomz.lev",
  "hellhole/S-Arena.lev",
  "hellhole/S.O.B.lev",
  "hellhole/SMILEEE.LEV",
  "hellhole/SNAKE_1.LEV",
  "hellhole/SNIPE.lev",
  "hellhole/SPECIAL.LEV",
  "hellhole/SPIRAL_1.LEV",
  "hellhole/STEE.LEV",
  "hellhole/STONEAGE.LEV",
  "hellhole/STONED.LEV",
  "hellhole/Shadowfax.lev",
  "hellhole/Shaft2.lev",
  "hellhole/Sky.lev",
  "hellhole/Slime.lev",
  "hellhole/Spiral.lev",
  "hellhole/StarNite.lev",
  "hellhole/Statue.lev",
  "hellhole/Stupido.lev",
  "hellhole/Surface.lev",
  "hellhole/TF.LEV",
  "hellhole/THEDRILL.LEV",
  "hellhole/TOMTOM.LEV",
  "hellhole/TORTELIN.LEV",
  "hellhole/TOURNEY.LEV",
  "hellhole/TREECOPY.LEV",
  "hellhole/TRYFFEL.LEV",
  "hellhole/Temple.lev",
  "hellhole/The Next D-Day.lev",
  "hellhole/Tower.lev",
  "hellhole/Trap Map!!!.lev",
  "hellhole/Trenches.lev",
  "hellhole/Turbo.lev",
  "hellhole/Turtle.lev",
  "hellhole/UFO.lev",
  "hellhole/UFO_1.LEV",
  "hellhole/UrLord.lev",
  "hellhole/VILDSVIN.LEV",
  "hellhole/VULKAAN.LEV",
  "hellhole/Vgen.lev",
  "hellhole/Volca.lev",
  "hellhole/Volcano_1.lev",
  "hellhole/VÄLGJORD.lev",
  "hellhole/WG.lev",
  "hellhole/WILD.LEV",
  "hellhole/WORMWARS.LEV",
  "hellhole/Warofworms.lev",
  "hellhole/Water2.lev",
  "hellhole/Whale.lev",
  "hellhole/WinWord.lev",
  "hellhole/Worlddom.lev",
  "hellhole/Worms.lev",
  "hellhole/Wrmfarm.lev",
  "hellhole/X-Mas.lev",
  "hellhole/X.lev",
  "hellhole/ZZ-2000.lev",
  "hellhole/ZanderZ.lev",
  "hellhole/a21.lev",
  "hellhole/aiTest.lev",
  "hellhole/alloutwar2.lev",
  "hellhole/arcorum.lev",
  "hellhole/areninha.lev",
  "hellhole/arina.lev",
  "hellhole/arina_1.lev",
  "hellhole/aswan.lev",
  "hellhole/beach.lev",
  "hellhole/big round fort.lev",
  "hellhole/big.lev",
  "hellhole/bird.lev",
  "hellhole/bloodcity2.lev",
  "hellhole/bloodycircus.lev",
  "hellhole/blowgoat.lev",
  "hellhole/bomb drop.lev",
  "hellhole/bomber roof.lev",
  "hellhole/boom.lev",
  "hellhole/boom2.lev",
  "hellhole/bunkers_2.lev",
  "hellhole/cacoonz.lev",
  "hellhole/cafe.lev",
  "hellhole/cave.lev",
  "hellhole/clans.lev",
  "hellhole/confusing.lev",
  "hellhole/cool_3.lev",
  "hellhole/coolbob.lev",
  "hellhole/coolbob1.lev",
  "hellhole/datkk.lev",
  "hellhole/doogsy.lev",
  "hellhole/dookie.lev",
  "hellhole/door to door war.lev",
  "hellhole/drknark.lev",
  "hellhole/estatua.lev",
  "hellhole/eyeball.lev",
  "hellhole/fargerik.lev",
  "hellhole/feting fett.lev",
  "hellhole/fight.lev",
  "hellhole/fiska.lev",
  "hellhole/fiskboll.lev",
  "hellhole/floors.lev",
  "hellhole/flyluft.lev",
  "hellhole/fork.lev",
  "hellhole/frog.lev",
  "hellhole/frontline.lev",
  "hellhole/fujita.lev",
  "hellhole/funnel.lev",
  "hellhole/funny.lev",
  "hellhole/getebo.lev",
  "hellhole/gorilla.lev",
  "hellhole/gubbs.lev",
  "hellhole/hangon.lev",
  "hellhole/hell.lev",
  "hellhole/highway.lev",
  "hellhole/house_1.lev",
  "hellhole/houses.lev",
  "hellhole/igo eh muito fei.lev",
  "hellhole/igor merda.lev",
  "hellhole/illusion.lev",
  "hellhole/karrrllls.lev",
  "hellhole/kego.lev",
  "hellhole/kenny.lev",
  "hellhole/kettle.lev",
  "hellhole/kgivler1.lev",
  "hellhole/kgivler3.lev",
  "hellhole/kpack1.lev",
  "hellhole/kyle2.lev",
  "hellhole/kyle3.lev",
  "hellhole/labyrint2.lev",
  "hellhole/lamo.lev",
  "hellhole/larvalevel.lev",
  "hellhole/leliero.lev",
  "hellhole/liero500.lev",
  "hellhole/liero_war.lev",
  "hellhole/lieropower.lev",
  "hellhole/lingon.lev",
  "hellhole/medieval.lev",
  "hellhole/megarock.lev",
  "hellhole/mineplus.lev",
  "hellhole/missil2.lev",
  "hellhole/moonstreet.lev",
  "hellhole/mountain.lev",
  "hellhole/multiplicity.lev",
  "hellhole/mystic.lev",
  "hellhole/office_1.lev",
  "hellhole/oro2.lev",
  "hellhole/orofication.lev",
  "hellhole/pipeline.lev",
  "hellhole/pipes.lev",
  "hellhole/pot.lev",
  "hellhole/qmark.lev",
  "hellhole/quake3.lev",
  "hellhole/rcoaster.lev",
  "hellhole/reactor.lev",
  "hellhole/rektum.lev",
  "hellhole/rock.lev",
  "hellhole/rocket.lev",
  "hellhole/rompe.lev",
  "hellhole/round fort.lev",
  "hellhole/rudi.lev",
  "hellhole/scene3.lev",
  "hellhole/screen3.lev",
  "hellhole/sections.lev",
  "hellhole/sheep_1.lev",
  "hellhole/sign.lev",
  "hellhole/skelett.lev",
  "hellhole/skelett_1.lev",
  "hellhole/slide.lev",
  "hellhole/slop.lev",
  "hellhole/slot.lev",
  "hellhole/slottet.lev",
  "hellhole/space_1.lev",
  "hellhole/spike_1.lev",
  "hellhole/stalin.lev",
  "hellhole/starscape.lev",
  "hellhole/station.lev",
  "hellhole/tank.lev",
  "hellhole/tetris.lev",
  "hellhole/time.lev",
  "hellhole/tokara.lev",
  "hellhole/towers.lev",
  "hellhole/trees.lev",
  "hellhole/trench.lev",
  "hellhole/trench_2.lev",
  "hellhole/tunnel_2.lev",
  "hellhole/tunnels_1.lev",
  "hellhole/uoyt.lev",
  "hellhole/viipuri3.lev",
  "hellhole/volcano.lev",
  "hellhole/volcano_2.lev",
  "hellhole/vrak.lev",
  "hellhole/vulcano.lev",
  "hellhole/vulgo.lev",
  "hellhole/warzone2.lev",
  "hellhole/woods.lev",
  "hellhole/words.lev",
  "hellhole/wormstne.lev",
  "hellhole/cavecastles.lev",
  "hellhole/1sttrolsaone.lev",
  "hellhole/666.lev",
  "hellhole/8xwhell.lev",
  "hellhole/ARENA4.LEV",
  "hellhole/Ak.lev",
  "hellhole/Arena911.lev",
  "hellhole/Arena_2.lev",
  "hellhole/BALL.lev",
  "hellhole/Battle-field.lev",
  "hellhole/Bowsers Cave.lev",
  "hellhole/CLIFF.LEV",
  "hellhole/CTF-Facing Worlds.lev",
  "hellhole/CTF.lev",
  "hellhole/Cheesewarz.lev",
  "hellhole/Crecent.lev",
  "hellhole/DM - Phobos Moon.lev",
  "hellhole/DOMETRY.LEV",
  "hellhole/Dome.lev",
  "hellhole/Eclipse.lev",
  "hellhole/FORTRESS_1.LEV",
  "hellhole/Field_1.lev",
  "hellhole/Fly3.lev",
  "hellhole/Guardian.lev",
  "hellhole/Hell_1.lev",
  "hellhole/Ledge.lev",
  "hellhole/Lines.lev",
  "hellhole/MeltDown.lev",
  "hellhole/Open level.lev",
  "hellhole/Playgrou.lev",
  "hellhole/Q3arena1.lev",
  "hellhole/RADIAL.LEV",
  "hellhole/Roper.lev",
  "hellhole/SKELBASE.LEV",
  "hellhole/Seven Dragonballs.lev",
  "hellhole/Smiley.lev",
  "hellhole/Sone Zeta.lev",
  "hellhole/StarBurst.lev",
  "hellhole/Temple2.lev",
  "hellhole/Thewell.lev",
  "hellhole/Tube.lev",
  "hellhole/Underground.lev",
  "hellhole/blank.lev",
  "hellhole/blink_1.lev",
  "hellhole/blob.lev",
  "hellhole/blood.lev",
  "hellhole/brokan.lev",
  "hellhole/bunkers.lev",
  "hellhole/cruiser.lev",
  "hellhole/desrtsun.lev",
  "hellhole/drains.lev",
  "hellhole/dropzone_1.lev",
  "hellhole/dtunnel.lev",
  "hellhole/duelroom1.lev",
  "hellhole/eif.lev",
  "hellhole/fara.lev",
  "hellhole/fmfriend.lev",
  "hellhole/fro.lev",
  "hellhole/gooya.lev",
  "hellhole/graves.lev",
  "hellhole/guns.lev",
  "hellhole/hearcia.lev",
  "hellhole/idiota.lev",
  "hellhole/joltjord.lev",
  "hellhole/kaj.lev",
  "hellhole/l_turbo.lev",
  "hellhole/ladofdef_1.lev",
  "hellhole/mushroom.lev",
  "hellhole/n3.lev",
  "hellhole/nails12.lev",
  "hellhole/ohshit.lev",
  "hellhole/pool.lev",
  "hellhole/pretzel.lev",
  "hellhole/ramp.lev",
  "hellhole/rubble.lev",
  "hellhole/shapeup.lev",
  "hellhole/sheep.lev",
  "hellhole/shotgun.lev",
  "hellhole/shrine.lev",
  "hellhole/simples.lev",
  "hellhole/snowdev.lev",
  "hellhole/spike.lev",
  "hellhole/team-death.lev",
  "hellhole/towers_2.lev",
  "hellhole/yums.lev",
  "hellhole/2Forts.lev",
  "hellhole/5pipe.lev",
  "hellhole/ANT HILL.LEV",
  "hellhole/ANTS1.LEV",
  "hellhole/Afterlife.lev",
  "hellhole/AirForce.lev",
  "hellhole/Alley.lev",
  "hellhole/Area51.lev",
  "hellhole/Assault.lev",
  "hellhole/BGrock.lev",
  "hellhole/BIN LADE.LEV",
  "hellhole/BOMBARD.LEV",
  "hellhole/BORDOM.LEV",
  "hellhole/BOWSERPL.LEV",
  "hellhole/BellCity.lev",
  "hellhole/BellFun.lev",
  "hellhole/Big X.lev",
  "hellhole/BigCity.lev",
  "hellhole/Bizzare.lev",
  "hellhole/Blades Liero Resort.lev",
  "hellhole/Bubbles.lev",
  "hellhole/Building.lev",
  "hellhole/CS HardCore.lev",
  "hellhole/CTF - Red October.lev",
  "hellhole/Carvings.LEV",
  "hellhole/CastV2.lev",
  "hellhole/Castle2.lev",
  "hellhole/Chook Arena.lev",
  "hellhole/Chump.lev",
  "hellhole/City Assualt.lev",
  "hellhole/Computer.lev",
  "hellhole/D-day.lev",
  "hellhole/D11base.lev",
  "hellhole/Dog.lev",
  "hellhole/FREE.LEV",
  "hellhole/FURUKEL.LEV",
  "hellhole/Flojo.lev",
  "hellhole/Follow the White Rabbit.lev",
  "hellhole/Fort1.lev",
  "hellhole/Fortress_2.lev",
  "hellhole/GMT3beta32.lev",
  "hellhole/GreyUFO.lev",
  "hellhole/HiddenCove.lev",
  "hellhole/Hive.lev",
  "hellhole/House.lev",
  "hellhole/IMLOST.LEV",
  "hellhole/JANNU.LEV",
  "hellhole/JANNU133.LEV",
  "hellhole/JUSSI999.LEV",
  "hellhole/Jee.lev",
  "hellhole/Krig.lev",
  "hellhole/LAB!.lev",
  "hellhole/LABRATH.LEV",
  "hellhole/Leaking.lev",
  "hellhole/Lightning volcano.lev",
  "hellhole/Lines_1.lev",
  "hellhole/Lost.lev",
  "hellhole/MY HOUSES.LEV",
  "hellhole/MarioLnd.lev",
  "hellhole/Maze2.lev",
  "hellhole/Maze_1.lev",
  "hellhole/Maze_2.lev",
  "hellhole/Mission.lev",
  "hellhole/Nukecore.lev",
  "hellhole/PERFECT.LEV",
  "hellhole/PaakALLO.LEV",
  "hellhole/Phantosams castle.lev",
  "hellhole/Port.lev",
  "hellhole/ROCKDUDE.LEV",
  "hellhole/Rescue thoos hostage.lev",
  "hellhole/Roburky1.lev",
  "hellhole/RockCity.lev",
  "hellhole/Rock_1.lev",
  "hellhole/S.LEV",
  "hellhole/Snow.lev",
  "hellhole/Street.lev",
  "hellhole/Stripes.lev",
  "hellhole/TOXIC.LEV",
  "hellhole/TRICKYCL.LEV",
  "hellhole/TUNNELS_2.lev",
  "hellhole/TechnoForts.lev",
  "hellhole/TerriostScum.lev",
  "hellhole/TheCave.lev",
  "hellhole/Tiger's Warzone.lev",
  "hellhole/TooMuch.lev",
  "hellhole/Train.lev",
  "hellhole/Training.lev",
  "hellhole/Transit.lev",
  "hellhole/UA-PARK.LEV",
  "hellhole/UA-STREETS.LEV",
  "hellhole/UH OH OH.LEV",
  "hellhole/VAINU.LEV",
  "hellhole/VILLE.LEV",
  "hellhole/Vault city.LEV",
  "hellhole/Volcano_3.lev",
  "hellhole/Water System.lev",
  "hellhole/X-treme Forts.lev",
  "hellhole/Xvz.lev",
  "hellhole/aaa.lev",
  "hellhole/aftermath.lev",
  "hellhole/bloodprk.lev",
  "hellhole/bones.lev",
  "hellhole/boxwar.lev",
  "hellhole/butterfly.lev",
  "hellhole/casino final.lev",
  "hellhole/castle.lev",
  "hellhole/castle_4.lev",
  "hellhole/caves of doom.lev",
  "hellhole/cells.lev",
  "hellhole/conduit.lev",
  "hellhole/contruction.lev",
  "hellhole/cool.lev",
  "hellhole/dcastle.lev",
  "hellhole/deck18.lev",
  "hellhole/derek1.lev",
  "hellhole/derek2.lev",
  "hellhole/destroy2.lev",
  "hellhole/doublebase.lev",
  "hellhole/dump.lev",
  "hellhole/dump2.lev",
  "hellhole/fools.lev",
  "hellhole/gigaworm.lev",
  "hellhole/heaven.lev",
  "hellhole/hell_2.lev",
  "hellhole/hubba.lev",
  "hellhole/kgivler4.lev",
  "hellhole/kgivler6.lev",
  "hellhole/kors.lev",
  "hellhole/kyle4.lev",
  "hellhole/little town.lev",
  "hellhole/oneside.lev",
  "hellhole/onlyoneway.lev",
  "hellhole/rally.lev",
  "hellhole/redmonster.lev",
  "hellhole/redrock.lev",
  "hellhole/scuba.lev",
  "hellhole/silo attack.lev",
  "hellhole/snigel.lev",
  "hellhole/sokkelo.lev",
  "hellhole/spacestation.lev",
  "hellhole/spring.lev",
  "hellhole/tower_1.lev",
  "hellhole/towerwar.lev",
  "hellhole/tri fort.lev",
  "hellhole/two buildings.lev",
  "hellhole/u96.lev",
  "hellhole/war.lev",
  "hellhole/AirCastleZ.lev",
  "hellhole/Lost Base.lev",
  "hellhole/Mines.lev",
  "hellhole/fun.lev",
  "hellhole/2Ninjas.lev",
  "hellhole/BALTIC.lev",
  "hellhole/BEAM2.LEV",
  "hellhole/BUNKERS_1.LEV",
  "hellhole/BUNKRY.LEV",
  "hellhole/Cross Walls.lev",
  "hellhole/Curves.lev",
  "hellhole/DEADLYFL.LEV",
  "hellhole/DEATH BO.LEV",
  "hellhole/DIAMOND.LEV",
  "hellhole/DM-1.lev",
  "hellhole/Damned.lev",
  "hellhole/Dzuma.lev",
  "hellhole/Elegant.lev",
  "hellhole/Ice cave.lev",
  "hellhole/Kewk.lev",
  "hellhole/Kitchen.lev",
  "hellhole/Line.lev",
  "hellhole/MAZEOFDTH.lev",
  "hellhole/Passage.lev",
  "hellhole/Q3basin.lev",
  "hellhole/ROCK1.LEV",
  "hellhole/RUSH.LEV",
  "hellhole/TEMPLE_1.LEV",
  "hellhole/Tightwad.lev",
  "hellhole/VermisPit.lev",
  "hellhole/ZIMM.LEV",
  "hellhole/Zeppelin.lev",
  "hellhole/arena.lev",
  "hellhole/blastpit.lev",
  "hellhole/bunnycat.lev",
  "hellhole/cathode2.lev",
  "hellhole/crazy_1.lev",
  "hellhole/death.lev",
  "hellhole/diagonal.lev",
  "hellhole/dojo.lev",
  "hellhole/dotty.lev",
  "hellhole/finlfigt.lev",
  "hellhole/flyndie.lev",
  "hellhole/handz.lev",
  "hellhole/hardwrld.lev",
  "hellhole/hill.lev",
  "hellhole/hvymetal.lev",
  "hellhole/jumpbase.lev",
  "hellhole/jungle2.lev",
  "hellhole/kickass.lev",
  "hellhole/king.lev",
  "hellhole/nav_dm.lev",
  "hellhole/nike.lev",
  "hellhole/openjump.lev",
  "hellhole/quake2.lev",
  "hellhole/teraz3.lev",
  "hellhole/thorn.lev",
  "hellhole/walls.lev",
  "hellhole/war_1.lev",
  "hellhole/wcav.lev",
  "hellhole/zimmarea.lev",
  "hellhole/$MUMEY$.LEV",
  "hellhole/007.lev",
  "hellhole/2BASES.LEV",
  "hellhole/@AT@.LEV",
  "hellhole/Ak22.lev",
  "hellhole/BATTLEDM.LEV",
  "hellhole/BIGHOUSE.LEV",
  "hellhole/Block.lev",
  "hellhole/CASTLE_1.LEV",
  "hellhole/CTFArena_1.lev",
  "hellhole/CVICISTE.LEV",
  "hellhole/Carnival.lev",
  "hellhole/Chaos I.LEV",
  "hellhole/Church.lev",
  "hellhole/City.lev",
  "hellhole/Commando.lev",
  "hellhole/DIRTFACT.LEV",
  "hellhole/DIRTHOLE.LEV",
  "hellhole/Elevate.lev",
  "hellhole/FORTFAN.LEV",
  "hellhole/Fallout.lev",
  "hellhole/Fight Eyes.lev",
  "hellhole/Forest.lev",
  "hellhole/GreyFort.lev",
  "hellhole/HELLRAIN.LEV",
  "hellhole/Haunted.lev",
  "hellhole/HighRock.lev",
  "hellhole/Hotel 2.lev",
  "hellhole/Hotel.lev",
  "hellhole/Hq.lev",
  "hellhole/Ice Station.lev",
  "hellhole/Interlierobattles.lev",
  "hellhole/JIPEE.LEV",
  "hellhole/JUSSI2.LEV",
  "hellhole/Jnglenight.lev",
  "hellhole/JoeMac.lev",
  "hellhole/Joes2.lev",
  "hellhole/KUBLA.LEV",
  "hellhole/LEVaYTYS.LEV",
  "hellhole/Light.lev",
  "hellhole/MarcMaze.lev",
  "hellhole/Metro.lev",
  "hellhole/Mine.lev",
  "hellhole/Missile.lev",
  "hellhole/Mission6.lev",
  "hellhole/Mob.lev",
  "hellhole/Mofoc2.lev",
  "hellhole/MoonTown.lev",
  "hellhole/Moonbase.lev",
  "hellhole/Mountain_2.lev",
  "hellhole/Mt.Kewl.lev",
  "hellhole/NAABRID2.LEV",
  "hellhole/NUKESITE.lev",
  "hellhole/Neon.lev",
  "hellhole/Nfactory.lev",
  "hellhole/Nofly.lev",
  "hellhole/Paras2.lev",
  "hellhole/Pleasegod.lev",
  "hellhole/Q3arena2.lev",
  "hellhole/SPcsupp.lev",
  "hellhole/StarTown.lev",
  "hellhole/Supply depot.lev",
  "hellhole/TOWERS_1.LEV",
  "hellhole/The Base.lev",
  "hellhole/The D11-Base.lev",
  "hellhole/The arena.lev",
  "hellhole/ToraBora.lev",
  "hellhole/Training_1.lev",
  "hellhole/Tunnels.LEV",
  "hellhole/Twister.lev",
  "hellhole/UA-FORT.LEV",
  "hellhole/UA-METRO.LEV",
  "hellhole/VERSION.LEV",
  "hellhole/WW2.LEV",
  "hellhole/WWI.lev",
  "hellhole/Warehaus.lev",
  "hellhole/Warforts.lev",
  "hellhole/Wormhouse.lev",
  "hellhole/adelanto.lev",
  "hellhole/base1.lev",
  "hellhole/building_3.lev",
  "hellhole/castle2_1.lev",
  "hellhole/castle_2.lev",
  "hellhole/castle_3.lev",
  "hellhole/castlez.lev",
  "hellhole/cow.lev",
  "hellhole/crazy.lev",
  "hellhole/downtown.lev",
  "hellhole/esko.lev",
  "hellhole/gaper.lev",
  "hellhole/gard towers.lev",
  "hellhole/hornillo.lev",
  "hellhole/house2.lev",
  "hellhole/house_2.lev",
  "hellhole/impossbl.lev",
  "hellhole/jungle1.lev",
  "hellhole/keep.lev",
  "hellhole/kgivler2.lev",
  "hellhole/kgivler5.lev",
  "hellhole/klex.lev",
  "hellhole/lb_vulcn.lev",
  "hellhole/led.lev",
  "hellhole/lego.lev",
  "hellhole/lift.lev",
  "hellhole/mine_1.lev",
  "hellhole/mining.lev",
  "hellhole/misile.lev",
  "hellhole/mount ki.lev",
  "hellhole/munchoz.lev",
  "hellhole/neighbours.lev",
  "hellhole/oilraft.lev",
  "hellhole/place.lev",
  "hellhole/planetz.lev",
  "hellhole/podzemi.lev",
  "hellhole/prison.lev",
  "hellhole/psycho.lev",
  "hellhole/raid.lev",
  "hellhole/rebels.lev",
  "hellhole/rockar.lev",
  "hellhole/rockar3.lev",
  "hellhole/rooms.lev",
  "hellhole/scity.lev",
  "hellhole/scud.lev",
  "hellhole/serial.lev",
  "hellhole/sfactory.lev",
  "hellhole/shroomz.lev",
  "hellhole/splat.lev",
  "hellhole/storage.lev",
  "hellhole/stygg.lev",
  "hellhole/style.lev",
  "hellhole/sun.lev",
  "hellhole/takta.lev",
  "hellhole/treehaus.lev",
  "hellhole/tunnel.lev",
  "hellhole/tunnel_1.lev",
  "hellhole/ultrar.lev",
  "hellhole/ulvenstn.lev",
  "hellhole/war Bubbles of doom.lev",
  "hellhole/warfield.lev",
  "hellhole/weekyear.lev",
  "hellhole/winning cup.lev",
  "hellhole/winter.lev",
  "hellhole/winter_1.lev",
  "hellhole/wormatras.lev",
  "hellhole/1337.lev",
  "hellhole/2xcathode.lev",
  "hellhole/2xkross-s.lev",
  "hellhole/2zamki3.lev",
  "hellhole/6xwheel.lev",
  "hellhole/Agave.lev",
  "hellhole/Circling.lev",
  "hellhole/Fin.lev",
  "hellhole/Jump.lev",
  "hellhole/Kross3.lev",
  "hellhole/Kross4.lev",
  "hellhole/MyLevel2.lev",
  "hellhole/Owl.lev",
  "hellhole/RGB.LEV",
  "hellhole/RU.LEV",
  "hellhole/SNight.lev",
  "hellhole/Shelves.lev",
  "hellhole/Simple.lev",
  "hellhole/aqueducts.lev",
  "hellhole/canyon.lev",
  "hellhole/dethruw3.lev",
  "hellhole/egypt.lev",
  "hellhole/gears.lev",
  "hellhole/glasscup.lev",
  "hellhole/illyria.lev",
  "hellhole/kross31-s.lev",
  "hellhole/manson.lev",
  "hellhole/meander.lev",
  "hellhole/miazga.lev",
  "hellhole/navarona.lev",
  "hellhole/quickdef.lev",
  "hellhole/shadowr.lev",
  "hellhole/shayss.lev",
  "hellhole/stronghold.lev",
  "hellhole/tdk3.lev",
  "hellhole/tiger-s.lev",
  "hellhole/2worm4ya.lev",
  "hellhole/AfricanBonanza2.lev",
  "hellhole/Bunkier2.lev",
  "hellhole/COOL_1.LEV",
  "hellhole/Domes.lev",
  "hellhole/Dropzone.lev",
  "hellhole/DvDmanDT.lev",
  "hellhole/FORTISAR.LEV",
  "hellhole/Fort2.lev",
  "hellhole/LABRIN.LEV",
  "hellhole/Laardi2.lev",
  "hellhole/Labra.lev",
  "hellhole/LodeRun.LEV",
  "hellhole/LodeRun2.lev",
  "hellhole/Mountain_1.lev",
  "hellhole/MyLevel1.lev",
  "hellhole/MyLevel3.lev",
  "hellhole/Nfuel.lev",
  "hellhole/ROCKBASE.LEV",
  "hellhole/Ramm.lev",
  "hellhole/RealTime.lev",
  "hellhole/ST-1.lev",
  "hellhole/TheMine.lev",
  "hellhole/Warfare.lev",
  "hellhole/albatros.lev",
  "hellhole/amplify.lev",
  "hellhole/crazy_2.lev",
  "hellhole/face.lev",
  "hellhole/flame.lev",
  "hellhole/forrest.lev",
  "hellhole/galleon.lev",
  "hellhole/holy.lev",
  "hellhole/kulon-q8.lev",
  "hellhole/labyrint.lev",
  "hellhole/lavina.lev",
  "hellhole/lvl0003.lev",
  "hellhole/marocko6.lev",
  "hellhole/mega.lev",
  "hellhole/park8.lev",
  "hellhole/planetx.lev",
  "hellhole/qaverns.lev",
  "hellhole/rainyday.lev",
  "hellhole/serpent.lev",
  "hellhole/sludgestastion.lev",
  "hellhole/spikcavn.lev",
  "hellhole/tunnel2.lev",
  "hellhole/warloops.lev",
  "hellhole/warzone.lev",
  "hellhole/Bridge.lev",
  "hellhole/CHAOSI~T.LEV",
  "hellhole/2xkross2.lev",
  "hellhole/4squares.lev",
  "hellhole/Cathode_1.lev",
  "hellhole/Cheese.lev",
  "hellhole/DUEL.LEV",
  "hellhole/HUSK.LEV",
  "hellhole/INDIA2.LEV",
  "hellhole/Likwid.lev",
  "hellhole/MITH.lev",
  "hellhole/Memory.lev",
  "hellhole/Owl-2.lev",
  "hellhole/Owl-3.lev",
  "hellhole/Saloon.lev",
  "hellhole/Sancti.lev",
  "hellhole/Simple2.lev",
  "hellhole/TEMPLE27.LEV",
  "hellhole/angel.lev",
  "hellhole/arena711.lev",
  "hellhole/arkham.lev",
  "hellhole/atr.lev",
  "hellhole/badger.lev",
  "hellhole/bj4wilq.lev",
  "hellhole/cathode.lev",
  "hellhole/deathruw.lev",
  "hellhole/fallout2.lev",
  "hellhole/ghostrider_platforms.lev",
  "hellhole/izbla.lev",
  "hellhole/panther-s.lev",
  "hellhole/pokol2.lev",
  "hellhole/pyramid_1.lev",
  "hellhole/qflight.lev",
  "hellhole/tune-l.lev",
  "hellhole/unite.lev",
  "hellhole/BATTLEGR.LEV",
  "hellhole/SMB.lev",
  "hellhole/THE HUNTERS.lev",
  "hellhole/TOWER_2.LEV",
  "hellhole/Tomb.lev",
  "hellhole/baricade.lev",
  "hellhole/building_2.lev",
  "hellhole/circles.lev",
  "hellhole/lb_cmplx.lev",
  "hellhole/lb_infst.lev",
  "hellhole/lvl0005.lev",
  "hellhole/osamabase.lev",
  "hellhole/phobos.lev",
  "hellhole/qmark_1.lev",
  "hellhole/the cave.lev",
  "hellhole/tunnel2_1.lev",
  "hellhole/wormhole_1.lev",
  "hellhole/bloody.lev",
  "hellhole/Qrampage.lev"
]