[
  "hellhole/Likwid.lev",
  "hellhole/BATTLEGR.LEV",
  "hellhole/SMB.lev",
  "hellhole/THE HUNTERS.lev",
  "hellhole/TOWER_2.LEV",
  "hellhole/Tomb.lev",
  "hellhole/baricade.lev",
  "hellhole/building_2.lev",
  "hellhole/circles.lev",
  "hellhole/lb_cmplx.lev",
  "hellhole/lb_infst.lev",
  "hellhole/lvl0005.lev",
  "hellhole/osamabase.lev",
  "hellhole/phobos.lev",
  "hellhole/qmark_1.lev",
  "hellhole/the cave.lev",
  "hellhole/tunnel2_1.lev",
  "hellhole/wormhole_1.lev",
  "hellhole/bloody.lev",
  "hellhole/Qrampage.lev"
]